o Top1
v 0.500000 1.000000 0.500000
v -0.500000 1.000000 -0.500000
v -0.500000 1.000000 0.500000
v 0.500000 1.000000 -0.500000
vt 1.000000 0.000000
vt 0.000000 1.000000
vt 0.000000 0.000000
vt 1.000000 1.000000
s off
f 1/1 2/2 3/3
f 2/2 1/1 4/4
o Top2
v 0.500000 0.062500 0.500000
v -0.500000 0.062500 0.437500
v -0.500000 0.062500 0.500000
v -0.437500 0.062500 0.437500
v 0.437500 0.062500 0.437500
v 0.500000 0.062500 0.437500
v -0.437500 0.062500 -0.437500
v 0.437500 0.062500 -0.437500
vt 1.000000 0.000000
vt 0.000000 0.066667
vt 0.000000 0.000000
vt 0.062500 0.066667
vt 0.937500 0.066667
vt 1.000000 0.066667
vt 0.062500 0.937500
vt 0.937500 0.937500
s off
f 5/5 6/6 7/7
f 6/6 5/5 8/8
f 8/8 5/5 9/9
f 9/9 5/5 10/10
f 8/8 9/9 11/11
f 12/12 11/11 9/9
o Top3
v 0.437500 0.687500 0.000000
v -0.437500 0.687500 -0.437500
v -0.437500 0.687500 0.000000
v 0.437500 0.687500 -0.437500
vt 0.937500 0.500000
vt 0.062500 0.937500
vt 0.062500 0.500000
vt 0.937500 0.937500
s off
f 13/13 14/14 15/15
f 14/14 13/13 16/16
o Top4
v 0.437500 0.375000 0.250000
v -0.437500 0.375000 -0.437500
v -0.437500 0.375000 0.250000
v 0.437500 0.375000 -0.437500
vt 0.937500 0.250000
vt 0.062500 0.937500
vt 0.062500 0.250000
vt 0.937500 0.937500
s off
f 17/17 18/18 19/19
f 18/18 17/17 20/20
o Right1
v 0.500000 0.000000 -0.500000
v 0.500000 0.062500 0.500000
v 0.500000 0.000000 0.500000
v 0.500000 0.062500 0.437500
v 0.500000 0.937500 0.437500
v 0.500000 1.000000 -0.500000
v 0.500000 1.000000 0.500000
v 0.500000 0.937500 0.500000
vt 1.000000 0.000000
vt 0.000000 0.062500
vt 0.000000 0.000000
vt 0.062500 0.062500
vt 0.062500 0.937500
vt 1.000000 1.000000
vt 0.000000 1.000000
vt 0.000000 0.937500
s off
f 21/21 22/22 23/23
f 22/22 21/21 24/24
f 24/24 21/21 25/25
f 21/21 26/26 25/25
f 27/27 25/25 26/26
f 25/25 27/27 28/28
o Right2
v -0.437500 0.062500 0.437500
v -0.437500 0.312500 0.250000
v -0.437500 0.937500 0.437500
v -0.437500 0.062500 -0.437500
v -0.437500 0.312500 -0.437500
v -0.437500 0.375000 0.250000
v -0.437500 0.687500 0.000000
v -0.437500 0.937500 -0.437500
v -0.437500 0.687500 -0.437500
v -0.437500 0.625000 0.000000
v -0.437500 0.375000 -0.437500
v -0.437500 0.625000 -0.437500
vt 0.062500 0.062500
vt 0.250000 0.312500
vt 0.062500 0.937500
vt 0.937500 0.062500
vt 0.937500 0.312500
vt 0.250000 0.375000
vt 0.500000 0.687500
vt 0.937500 0.937500
vt 0.937500 0.687500
vt 0.500000 0.625000
vt 0.937500 0.375000
vt 0.937500 0.625000
s off
f 29/29 30/30 31/31
f 30/30 29/29 32/32
f 30/30 32/32 33/33
f 31/31 30/30 34/34
f 35/35 31/31 34/34
f 31/31 35/35 36/36
f 36/36 35/35 37/37
f 35/35 34/34 38/38
f 39/39 38/38 34/34
f 38/38 39/39 40/40
o Left1
v -0.500000 1.000000 -0.500000
v -0.500000 0.937500 0.500000
v -0.500000 1.000000 0.500000
v -0.500000 0.937500 0.437500
v -0.500000 0.062500 0.437500
v -0.500000 0.000000 -0.500000
v -0.500000 0.000000 0.500000
v -0.500000 0.062500 0.500000
vt 0.000000 1.000000
vt 1.000000 0.937500
vt 1.000000 1.000000
vt 0.937500 0.937500
vt 0.937500 0.062500
vt 0.000000 0.000000
vt 1.000000 0.000000
vt 1.000000 0.062500
s off
f 41/41 42/42 43/43
f 42/42 41/41 44/44
f 44/44 41/41 45/45
f 41/41 46/46 45/45
f 47/47 45/45 46/46
f 45/45 47/47 48/48
o Left2
v 0.437500 0.937500 0.437500
v 0.437500 0.375000 0.250000
v 0.437500 0.062500 0.437500
v 0.437500 0.687500 0.000000
v 0.437500 0.937500 -0.437500
v 0.437500 0.687500 -0.437500
v 0.437500 0.625000 0.000000
v 0.437500 0.375000 -0.437500
v 0.437500 0.625000 -0.437500
v 0.437500 0.312500 0.250000
v 0.437500 0.062500 -0.437500
v 0.437500 0.312500 -0.437500
vt 0.937500 0.937500
vt 0.750000 0.375000
vt 0.937500 0.062500
vt 0.500000 0.687500
vt 0.062500 0.937500
vt 0.062500 0.687500
vt 0.500000 0.625000
vt 0.062500 0.375000
vt 0.062500 0.625000
vt 0.750000 0.312500
vt 0.062500 0.062500
vt 0.062500 0.312500
s off
f 49/49 50/50 51/51
f 50/50 49/49 52/52
f 52/52 49/49 53/53
f 52/52 53/53 54/54
f 55/55 50/50 52/52
f 50/50 55/55 56/56
f 56/56 55/55 57/57
f 58/58 51/51 50/50
f 51/51 58/58 59/59
f 59/59 58/58 60/60
o Front8
v 0.437500 0.312500 -0.437500
v -0.437500 0.062500 -0.437500
v 0.437500 0.062500 -0.437500
v -0.437500 0.312500 -0.437500
vt 0.937500 0.312500
vt 0.062500 0.062500
vt 0.937500 0.062500
vt 0.062500 0.312500
s off
f 61/61 62/62 63/63
f 62/62 61/61 64/64
o Front9
v 0.437500 0.937500 -0.437500
v -0.437500 0.687500 -0.437500
v 0.437500 0.687500 -0.437500
v -0.437500 0.937500 -0.437500
vt 0.937500 0.937500
vt 0.062500 0.687500
vt 0.937500 0.687500
vt 0.062500 0.937500
s off
f 65/65 66/66 67/67
f 66/66 65/65 68/68
o Front7
v 0.437500 0.625000 -0.437500
v -0.437500 0.375000 -0.437500
v 0.437500 0.375000 -0.437500
v -0.437500 0.625000 -0.437500
vt 0.937500 0.625000
vt 0.062500 0.375000
vt 0.937500 0.375000
vt 0.062500 0.625000
s off
f 69/69 70/70 71/71
f 70/70 69/69 72/72
o Front6
v -0.437500 0.062500 0.437500
v -0.500000 0.937500 0.437500
v -0.500000 0.062500 0.437500
v -0.437500 0.937500 0.437500
vt 0.062500 0.062500
vt 0.000000 0.937500
vt 0.000000 0.062500
vt 0.062500 0.937500
s off
f 73/73 74/74 75/75
f 74/74 73/73 76/76
o Front5
v 0.500000 0.062500 0.500000
v -0.500000 0.000000 0.500000
v 0.500000 0.000000 0.500000
v -0.500000 0.062500 0.500000
vt 0.999975 0.062522
vt 0.000025 0.000025
vt 0.999975 0.000025
vt 0.000025 0.062522
s off
f 77/77 78/78 79/79
f 78/78 77/77 80/80
o Front4
v 0.437500 0.375000 0.250000
v -0.437500 0.312500 0.250000
v 0.437500 0.312500 0.250000
v -0.437500 0.375000 0.250000
vt 0.937500 0.375000
vt 0.062500 0.312500
vt 0.937500 0.312500
vt 0.062500 0.375000
s off
f 81/81 82/82 83/83
f 82/82 81/81 84/84
o Front3
v 0.437500 0.687500 0.000000
v -0.437500 0.625000 0.000000
v 0.437500 0.625000 0.000000
v -0.437500 0.687500 0.000000
vt 0.937500 0.687500
vt 0.062500 0.625000
vt 0.937500 0.625000
vt 0.062500 0.687500
s off
f 85/85 86/86 87/87
f 86/86 85/85 88/88
o Front2
v 0.500000 0.062500 0.437500
v 0.437500 0.937500 0.437500
v 0.437500 0.062500 0.437500
v 0.500000 0.937500 0.437500
vt 1.000000 0.062500
vt 0.937500 0.937500
vt 0.937500 0.062500
vt 1.000000 0.937500
s off
f 89/89 90/90 91/91
f 90/90 89/89 92/92
o Front1
v 0.500000 1.000000 0.500000
v -0.500000 0.937500 0.500000
v 0.500000 0.937500 0.500000
v -0.500000 1.000000 0.500000
vt 1.000000 1.000000
vt 0.000000 0.937500
vt 1.000000 0.937500
vt 0.000000 1.000000
s off
f 93/93 94/94 95/95
f 94/94 93/93 96/96
o DoorRight
v 0.500000 0.937500 0.500000
v -0.500000 0.062500 0.500000
v 0.500000 0.062500 0.500000
v -0.500000 0.937500 0.500000
v 0.500000 0.937500 0.500000
v -0.500000 0.937500 0.437500
v -0.500000 0.937500 0.500000
v 0.500000 0.937500 0.437500
v 0.500000 0.937500 0.500000
v 0.500000 0.062500 0.437500
v 0.500000 0.937500 0.437500
v 0.500000 0.062500 0.500000
v -0.500000 0.062500 0.500000
v 0.500000 0.062500 0.500000
v -0.500000 0.062500 0.437500
v -0.500000 0.062500 0.500000
v -0.500000 0.937500 0.437500
v -0.500000 0.062500 0.437500
v -0.500000 0.937500 0.500000
v 0.500000 0.937500 0.437500
v -0.500000 0.062500 0.437500
v -0.500000 0.937500 0.437500
vt 1.000000 1.000000
vt 0.000000 0.000000
vt 1.000000 0.000000
vt 0.000000 1.000000
vt 0.016531 0.973564
vt 0.982841 0.973564
vt 0.982841 0.007254
vt 0.016531 0.007254
s off
f 97/97 98/98 99/99
f 98/98 97/97 100/100
f 101/97 102/101 103/100
f 102/101 101/97 104/102
f 105/97 106/103 107/102
f 106/103 105/97 108/99
f 109/98 106/103 110/99
f 106/103 109/98 111/104
f 112/98 113/101 114/104
f 113/101 112/98 115/100
f 116/102 117/104 118/101
f 117/104 116/102 106/103
o DoorLeft
v -0.500000 0.937500 0.437500
v 0.500000 0.062500 0.437500
v -0.500000 0.062500 0.437500
v 0.500000 0.937500 0.437500
v -0.500000 0.937500 0.500000
v 0.500000 0.937500 0.437500
v -0.500000 0.937500 0.437500
v 0.500000 0.937500 0.500000
v -0.500000 0.062500 0.500000
v 0.500000 0.937500 0.500000
v -0.500000 0.937500 0.500000
v 0.500000 0.062500 0.500000
v -0.500000 0.062500 0.500000
v 0.500000 0.062500 0.437500
v 0.500000 0.062500 0.500000
v -0.500000 0.062500 0.500000
v -0.500000 0.937500 0.437500
v -0.500000 0.937500 0.500000
v 0.500000 0.062500 0.437500
v 0.500000 0.937500 0.500000
v 0.500000 0.062500 0.500000
v 0.500000 0.937500 0.437500
vt 0.016531 0.973564
vt 0.982841 0.007254
vt 0.016531 0.007254
vt 0.982841 0.973564
vt 0.000000 1.000000
vt 1.000000 1.000000
vt 0.000000 0.000000
vt 1.000000 0.000000
s off
f 119/105 120/106 121/107
f 120/106 119/105 122/108
f 123/109 124/108 125/105
f 124/108 123/109 126/110
f 127/111 128/110 129/109
f 128/110 127/111 130/112
f 131/111 132/106 133/112
f 132/106 131/111 121/107
f 134/111 135/105 121/107
f 135/105 134/111 136/109
f 137/106 138/110 139/112
f 138/110 137/106 140/108
o DDoorRight
v 0.000000 0.937500 0.437500
v 0.500000 0.062500 0.437500
v 0.000000 0.062500 0.437500
v 0.500000 0.937500 0.437500
v 0.000000 0.937500 0.437500
v 0.500000 0.937500 0.500000
v 0.500000 0.937500 0.437500
v 0.000000 0.937500 0.500000
v 0.000000 0.937500 0.437500
v 0.000000 0.062500 0.500000
v 0.000000 0.937500 0.500000
v 0.000000 0.062500 0.437500
v 0.000000 0.062500 0.500000
v 0.000000 0.062500 0.437500
v 0.500000 0.062500 0.500000
v 0.500000 0.937500 0.437500
v 0.500000 0.062500 0.500000
v 0.500000 0.937500 0.500000
v 0.500000 0.937500 0.500000
v 0.000000 0.062500 0.500000
v 0.500000 0.062500 0.500000
v 0.000000 0.937500 0.500000
vt 0.500000 1.000000
vt 1.000000 0.000000
vt 0.500000 0.000000
vt 0.978207 0.983206
vt 0.500000 0.937500
vt 1.000000 1.000000
vt 0.562500 1.000000
vt 0.500000 0.062500
s off
f 141/113 142/114 143/115
f 142/114 141/113 144/116
f 145/117 146/118 147/116
f 146/118 145/117 148/113
f 149/119 150/115 151/113
f 150/115 149/119 152/115
f 142/114 153/120 154/115
f 153/120 142/114 155/114
f 156/116 157/114 142/114
f 157/114 156/116 158/118
f 159/118 160/115 161/114
f 160/115 159/118 162/113
o DDoorLeft
v -0.500000 0.062500 0.437500
v 0.000000 0.937500 0.437500
v 0.000000 0.062500 0.437500
v -0.500000 0.937500 0.437500
v -0.500000 0.062500 0.500000
v -0.500000 0.937500 0.500000
v -0.500000 0.062500 0.500000
v 0.000000 0.937500 0.500000
v -0.500000 0.937500 0.500000
v 0.000000 0.062500 0.500000
v -0.500000 0.062500 0.500000
v 0.000000 0.062500 0.437500
v 0.000000 0.062500 0.500000
v 0.000000 0.062500 0.437500
v 0.000000 0.937500 0.500000
v 0.000000 0.062500 0.500000
v 0.000000 0.937500 0.437500
v -0.500000 0.937500 0.437500
v 0.000000 0.937500 0.500000
v 0.000000 0.937500 0.437500
v -0.500000 0.937500 0.500000
vt 0.000000 0.000000
vt 0.500000 1.000000
vt 0.500000 0.000000
vt 0.000000 1.000000
vt 0.062500 0.062500
vt 0.500000 0.062500
vt 0.437500 0.000000
vt 0.437500 1.000000
vt 0.000000 0.937500
vt 0.500000 0.937500
s off
f 163/121 164/122 165/123
f 164/122 163/121 166/124
f 163/121 167/125 166/124
f 166/124 167/125 168/124
f 169/121 170/122 171/124
f 170/122 169/121 172/123
f 173/125 174/126 175/123
f 163/121 174/126 173/125
f 176/127 177/122 178/123
f 177/122 176/127 179/128
f 180/129 181/122 182/130
f 181/122 180/129 183/124
o Back1
v -0.500000 1.000000 -0.500000
v 0.500000 0.000000 -0.500000
v -0.500000 0.000000 -0.500000
v 0.500000 1.000000 -0.500000
vt 1.000000 1.000000
vt 0.000000 0.000000
vt 1.000000 0.000000
vt 0.000000 1.000000
s off
f 184/131 185/132 186/133
f 185/132 184/131 187/134
o Bottom4
v 0.437500 0.312500 -0.437500
v -0.437500 0.312500 0.250000
v -0.437500 0.312500 -0.437500
v 0.437500 0.312500 0.250000
vt 0.937500 0.062500
vt 0.062500 0.750000
vt 0.062500 0.062500
vt 0.937500 0.750000
s off
f 188/135 189/136 190/137
f 189/136 188/135 191/138
o Bottom3
v 0.437500 0.937500 -0.437500
v -0.437500 0.937500 0.437500
v -0.437500 0.937500 -0.437500
v 0.437500 0.937500 0.437500
v 0.500000 0.937500 0.500000
v -0.500000 0.937500 0.500000
v -0.500000 0.937500 0.437500
v 0.500000 0.937500 0.437500
vt 0.937500 0.062500
vt 0.062500 0.937500
vt 0.062500 0.062500
vt 0.937500 0.937500
vt 1.000000 1.000000
vt 0.000000 1.000000
vt 0.000000 0.937500
vt 1.000000 0.937500
s off
f 192/139 193/140 194/141
f 192/139 195/142 193/140
f 196/143 193/140 195/142
f 197/144 193/140 196/143
f 193/140 197/144 198/145
f 196/143 195/142 199/146
o Bottom2
v 0.500000 0.000000 -0.500000
v -0.500000 0.000000 0.500000
v -0.500000 0.000000 -0.500000
v 0.500000 0.000000 0.500000
vt 1.000000 0.000000
vt 0.000000 1.000000
vt 0.000000 0.000000
vt 1.000000 1.000000
s off
f 200/147 201/148 202/149
f 201/148 200/147 203/150
o Bottom1
v 0.437500 0.625000 -0.437500
v -0.437500 0.625000 0.000000
v -0.437500 0.625000 -0.437500
v 0.437500 0.625000 0.000000
vt 0.937500 0.062500
vt 0.062500 0.312500
vt 0.062500 0.062500
vt 0.937500 0.312500
s off
f 204/151 205/152 206/153
f 205/152 204/151 207/154
